{
	"$schema": "http://json-schema.org/draft-04/schema#",
	"description": "version 1.0",
	"definitions": {
		"identity_req": {
			"type": "object",
			"properties": {
				"reqtxnid": {
					"type": "string"
				},
				"reqdate": {
					"type": "string",
					"format": "date-time"
				},
				"appid": {
					"type": "string"
				},
				"userid": {
					"type": "string"
				},
				"signature": {
					"type": "string"
				},
				"segno": {
					"type": "integer"
				}
			},
			"required": [
				"reqtxnid",
				"reqdate",
				"appid",
				"userid"
			]
		},
		"identity_res": {
			"allOf": [
				{
					"$ref": "#/definitions/identity_req"
				},
				{
					"properties": {
						"apptxnid": {
							"type": "string"
						}
					},
					"required": [
						"apptxnid"
					]
				}
			]
		},
		"paging_req": {
			"type": "object",
			"properties": {
				"page": {
					"type": "integer",
					"minimum": 0,
					"exclusiveMinimum": true
				},
				"limit": {
					"type": "integer",
					"minimum": 0,
					"exclusiveMinimum": true
				}
			},
			"required": [
				"page",
				"limit"
			]
		},
		"paging_res": {
			"allOf": [
				{
					"$ref": "#/definitions/paging_req"
				},
				{
					"properties": {
						"totalpage": {
							"type": "integer",
							"minimum": 0,
							"exclusiveMinimum": true
						},
						"totalrecord": {
							"type": "integer",
							"minimum": 0
						}
					},
					"required": [
						"totalpage",
						"totalrecord"
					]
				}
			]
		},
		"status": {
			"type": "object",
			"properties": {
				"responsecode": {
					"type": "string"
				},
				"responsedesc": {
					"type": "string"
				}
			},
			"required": [
				"responsecode",
				"responsedesc"
			]
		},
		"request": {
			"type": "object",
			"properties": {
				"identity": {
					"$ref": "#/definitions/identity_req"
				}
			},
			"required": [
				"identity"
			]
		},
		"response": {
			"type": "object",
			"properties": {
				"identity": {
					"$ref": "#/definitions/identity_res"
				},
				"status": {
					"$ref": "#/definitions/status"
				}
			},
			"required": [
				"identity",
				"status"
			]
		},
		"request_paging": {
			"type": "object",
			"properties": {
				"identity": {
					"allOf": [
						{
							"$ref": "#/definitions/identity_req"
						}
					]
				},
				"paging": {
					"allOf": [
						{
							"$ref": "#/definitions/paging_req"
						}
					]
				}
			},
			"required": [
				"identity",
				"paging"
			]
		},
		"response_paging": {
			"type": "object",
			"properties": {
				"identity": {
					"allOf": [
						{
							"$ref": "#/definitions/identity_res"
						}
					]
				},
				"status": {
					"$ref": "#/definitions/status"
				},
				"paging": {
					"allOf": [
						{
							"$ref": "#/definitions/paging_res"
						}
					]
				}
			},
			"required": [
				"identity",
				"status",
				"paging"
			]
		}
	}
}