{
	"$schema": "http://json-schema.org/draft-04/schema#",
	"allOf": [
		{
			"$ref": "base_v1.0.json#/definitions/response"
		},
		{
			"type": "object",
			"properties": {
				"result": {
					"$ref": "model.json#/definitions/id"
				}
			},
			"required": [
				"result"
			]
		}
	]
}