{
	"$schema": "http://json-schema.org/draft-04/schema#",
	"description": "_____file base.json wajib ada di satu folder (di direktori yang sama)_______",
	"allOf": [
		{
			"description": "____Jika tanpa komponen paging, gunakan ../request Jika menggunakan paging, gunakan ../request_paging____",
			"$ref": "base_v1.0.json#/definitions/request"
		},
		{
			"properties": {
				"parameter":{
					"description": "____________________tempat parameter/ data sesuai modul bisnis_____________________________",
					"type": "object",
					"properties": {
						"tesinput":{
							"type": "integer"
						}
					}
				}
			}
		}
	]

}